…
RQ4_Summarize2 <- RQ4_Summarize %>% group_by(neighbourhood_name, date_range) %>% 
             summarise(tree_count = n(), .groups = 'drop') %>%
             arrange(neighbourhood_name, tree_count)

RQ4_Summarize2
```

    ## # A tibble: 65 x 3
    ##    neighbourhood_name date_range       tree_count
    ##    <chr>              <chr>                 <int>
    ##  1 ARBUTUS-RIDGE      More than 10             59
    ##  2 ARBUTUS-RIDGE      Between 5 and 10        277
    ##  3 ARBUTUS-RIDGE      Less than 5            1250
    ##  4 DOWNTOWN           More than 10              5
    ##  5 DOWNTOWN           Between 5 and 10        112
    ##  6 DOWNTOWN           Less than 5             747
    ##  7 DUNBAR-SOUTHLANDS  More than 10             88
    ##  8 DUNBAR-SOUTHLANDS  Between 5 and 10        237
    ##  9 DUNBAR-SOUTHLANDS  Less than 5            1960
    ## 10 FAIRVIEW           More than 10             34
    ## # ... with 55 more rows
…
<!----------------------------------------------------------------------------->
<!-------------------------- Start your work below ---------------------------->

**Task Number**: 3

``` r
Task3  <- vancouver_trees %>%
          filter(!is.na(date_planted)) %>%
          mutate(year_planted = lubridate::year(date_planted)) %>%
          select(tree_id, year_planted, date_planted, everything()) 
Task3
```

    ## # A tibble: 70,063 x 21
    ##    tree_id year_planted date_planted civic_number std_street    genus_name
    ##      <dbl>        <dbl> <date>              <dbl> <chr>         <chr>     
    ##  1  149556         1999 1999-01-13            494 W 58TH AV     ULMUS     
    ##  2  149563         1996 1996-05-31            450 W 58TH AV     ZELKOVA   
    ##  3  149579         1993 1993-11-22           4994 WINDSOR ST    STYRAX    
    ##  4  149590         1996 1996-04-29            858 E 39TH AV     FRAXINUS  
    ##  5  149604         1993 1993-12-17           5032 WINDSOR ST    ACER      
    ##  6  149617         1993 1993-12-16           4909 SHERBROOKE ST ACER      
    ##  7  149618         1993 1993-12-16           4925 SHERBROOKE ST ACER      
    ##  8  149619         1993 1993-12-16           4969 SHERBROOKE ST ACER      
    ##  9  149625         1993 1993-12-03            720 E 39TH AV     FRAXINUS  
    ## 10  149626         1993 1993-12-03            736 E 39TH AV     TILIA     
    ## # ... with 70,053 more rows, and 15 more variables: species_name <chr>,
    ## #   cultivar_name <chr>, common_name <chr>, assigned <chr>, root_barrier <chr>,
    ## #   plant_area <chr>, on_street_block <dbl>, on_street <chr>,
    ## #   neighbourhood_name <chr>, street_side_name <chr>, height_range_id <dbl>,
    ## #   diameter <dbl>, curb <chr>, longitude <dbl>, latitude <dbl>
…
**Variable of interest**: `tree_count` as “Y”， `year_planted` as “X”.

From the new data frame *Task3* which contains the extracted year, I
created a new date frame *Exercise2_DF1* by grouping
`neighbourhood_name` and `year_planted`, to calculate the how many trees
are planted in each year for different neighbourhoods.

``` r
Exercise2_DF1 <- Task3 %>% group_by(neighbourhood_name, year_planted) %>% 
             summarise(tree_count = n(), .groups = 'drop')
Exercise2_DF1
```

    ## # A tibble: 671 x 3
    ##    neighbourhood_name year_planted tree_count
    ##    <chr>                     <dbl>      <int>
    ##  1 ARBUTUS-RIDGE              1989         41
    ##  2 ARBUTUS-RIDGE              1990         76
    ##  3 ARBUTUS-RIDGE              1991         16
    ##  4 ARBUTUS-RIDGE              1992         81
    ##  5 ARBUTUS-RIDGE              1993         18
    ##  6 ARBUTUS-RIDGE              1994         58
    ##  7 ARBUTUS-RIDGE              1995        151
    ##  8 ARBUTUS-RIDGE              1996         95
    ##  9 ARBUTUS-RIDGE              1997         61
    ## 10 ARBUTUS-RIDGE              1998         59
    ## # ... with 661 more rows
…
<!-------------------------- Start your work below ---------------------------->

I created a subset of the dataset *Exercise2_DF1* above containing only
the neighbourhood of *DOWNTOWN* by filtering the `neighbourhood_name`.

``` r
Exercise2_DF2 <- Exercise2_DF1 %>% filter(neighbourhood_name == "DOWNTOWN")
Exercise2_DF2
```

    ## # A tibble: 31 x 3
    ##    neighbourhood_name year_planted tree_count
    ##    <chr>                     <dbl>      <int>
    ##  1 DOWNTOWN                   1989          6
    ##  2 DOWNTOWN                   1990         32
    ##  3 DOWNTOWN                   1991         21
    ##  4 DOWNTOWN                   1992         16
    ##  5 DOWNTOWN                   1993         13
    ##  6 DOWNTOWN                   1994         63
    ##  7 DOWNTOWN                   1995         95
    ##  8 DOWNTOWN                   1996         18
    ##  9 DOWNTOWN                   1997        112
    ## 10 DOWNTOWN                   1998         79
    ## # ... with 21 more rows
…
Then I predicted the `tree_count` of other neighbourhoods (except
“DOWNTOWN”) using the \`\`augment()\`\`\` function, as shown in the new
generated column *.fitted*.

``` r
Exercise2.2.2 <- Exercise2_DF1 %>%
          filter(neighbourhood_name != "DOWNTOWN") %>%
          select(!tree_count) %>%
          broom::augment(Exercise2.1, newdata = .)
print(Exercise2.2.2)
```

    ## # A tibble: 640 x 3
    ##    neighbourhood_name year_planted .fitted
    ##    <chr>                     <dbl>   <dbl>
    ##  1 ARBUTUS-RIDGE              1989    58.9
    ##  2 ARBUTUS-RIDGE              1990    59.8
    ##  3 ARBUTUS-RIDGE              1991    60.7
    ##  4 ARBUTUS-RIDGE              1992    61.6
    ##  5 ARBUTUS-RIDGE              1993    62.5
    ##  6 ARBUTUS-RIDGE              1994    63.4
    ##  7 ARBUTUS-RIDGE              1995    64.3
    ##  8 ARBUTUS-RIDGE              1996    65.3
    ##  9 ARBUTUS-RIDGE              1997    66.2
    ## 10 ARBUTUS-RIDGE              1998    67.1
    ## # ... with 630 more rows
…
<!-------------------------- Start your work below ---------------------------->

I chose the summary table I made in the Research Question 4 from
Milestone 2 (Exercise 1.2), and the table name is *RQ4_Summarize*.

``` r
RQ4_Summarize  <- vancouver_trees %>% mutate(date_range = case_when(
                               date_planted <= "1991-11-1" ~ "More than 10", 
                               date_planted <= "1996-11-1" ~ "Between 5 and 10",
                               date_planted <= "2021-11-1" ~ "Less than 5")) %>%
                 select(tree_id, date_planted, date_range, everything()) %>% drop_na()
RQ4_Summarize
```

    ## # A tibble: 41,859 x 21
    ##    tree_id date_planted date_range       civic_number std_street    genus_name
    ##      <dbl> <date>       <chr>                   <dbl> <chr>         <chr>     
    ##  1  149556 1999-01-13   Less than 5               494 W 58TH AV     ULMUS     
    ##  2  149590 1996-04-29   Between 5 and 10          858 E 39TH AV     FRAXINUS  
    ##  3  149617 1993-12-16   Between 5 and 10         4909 SHERBROOKE ST ACER      
    ##  4  149618 1993-12-16   Between 5 and 10         4925 SHERBROOKE ST ACER      
    ##  5  149619 1993-12-16   Between 5 and 10         4969 SHERBROOKE ST ACER      
    ##  6  149625 1993-12-03   Between 5 and 10          720 E 39TH AV     FRAXINUS  
    ##  7  149640 1993-12-15   Between 5 and 10         6968 SELKIRK ST    ACER      
    ##  8  149673 1993-12-20   Between 5 and 10         5241 WINDSOR ST    FRAXINUS  
    ##  9  149683 1993-12-15   Between 5 and 10         7011 SELKIRK ST    ACER      
    ## 10  149684 1993-12-15   Between 5 and 10         1223 W 54TH AV     ACER      
    ## # ... with 41,849 more rows, and 15 more variables: species_name <chr>,
    ## #   cultivar_name <chr>, common_name <chr>, assigned <chr>, root_barrier <chr>,
    ## #   plant_area <chr>, on_street_block <dbl>, on_street <chr>,
    ## #   neighbourhood_name <chr>, street_side_name <chr>, height_range_id <dbl>,
    ## #   diameter <dbl>, curb <chr>, longitude <dbl>, latitude <dbl>
…
