…
``` r
steam_games
```

    ## # A tibble: 40,833 x 21
    ##       id url    types name  desc_snippet recent_reviews all_reviews release_date
    ##    <dbl> <chr>  <chr> <chr> <chr>        <chr>          <chr>       <chr>       
    ##  1     1 https~ app   DOOM  Now include~ Very Positive~ Very Posit~ May 12, 2016
    ##  2     2 https~ app   PLAY~ PLAYERUNKNO~ Mixed,(6,214)~ Mixed,(836~ Dec 21, 2017
    ##  3     3 https~ app   BATT~ Take comman~ Mixed,(166),-~ Mostly Pos~ Apr 24, 2018
    ##  4     4 https~ app   DayZ  The post-so~ Mixed,(932),-~ Mixed,(167~ Dec 13, 2018
    ##  5     5 https~ app   EVE ~ EVE Online ~ Mixed,(287),-~ Mostly Pos~ May 6, 2003 
    ##  6     6 https~ bund~ Gran~ Grand Theft~ NaN            NaN         NaN         
    ##  7     7 https~ app   Devi~ The ultimat~ Very Positive~ Very Posit~ Mar 7, 2019 
    ##  8     8 https~ app   Huma~ Human: Fall~ Very Positive~ Very Posit~ Jul 22, 2016
    ##  9     9 https~ app   They~ They Are Bi~ Very Positive~ Very Posit~ Dec 12, 2017
    ## 10    10 https~ app   Warh~ In a world ~ <NA>           Mixed,(904~ May 31, 2019
    ## # ... with 40,823 more rows, and 13 more variables: developer <chr>,
    ## #   publisher <chr>, popular_tags <chr>, game_details <chr>, languages <chr>,
    ## #   achievements <dbl>, genre <chr>, game_description <chr>,
    ## #   mature_content <chr>, minimum_requirements <chr>,
    ## #   recommended_requirements <chr>, original_price <dbl>, discount_price <dbl>
…
    ## [1] "tbl_df"     "tbl"        "data.frame"

``` r
dim(vancouver_trees)
```

    ## [1] 146611     20

``` r
vancouver_trees
```

    ## # A tibble: 146,611 x 20
    ##    tree_id civic_number std_street    genus_name species_name cultivar_name  
    ##      <dbl>        <dbl> <chr>         <chr>      <chr>        <chr>          
    ##  1  149556          494 W 58TH AV     ULMUS      AMERICANA    BRANDON        
    ##  2  149563          450 W 58TH AV     ZELKOVA    SERRATA      <NA>           
    ##  3  149579         4994 WINDSOR ST    STYRAX     JAPONICA     <NA>           
    ##  4  149590          858 E 39TH AV     FRAXINUS   AMERICANA    AUTUMN APPLAUSE
    ##  5  149604         5032 WINDSOR ST    ACER       CAMPESTRE    <NA>           
    ##  6  149616          585 W 61ST AV     PYRUS      CALLERYANA   CHANTICLEER    
    ##  7  149617         4909 SHERBROOKE ST ACER       PLATANOIDES  COLUMNARE      
    ##  8  149618         4925 SHERBROOKE ST ACER       PLATANOIDES  COLUMNARE      
    ##  9  149619         4969 SHERBROOKE ST ACER       PLATANOIDES  COLUMNARE      
    ## 10  149625          720 E 39TH AV     FRAXINUS   AMERICANA    AUTUMN APPLAUSE
    ## # ... with 146,601 more rows, and 14 more variables: common_name <chr>,
    ## #   assigned <chr>, root_barrier <chr>, plant_area <chr>,
    ## #   on_street_block <dbl>, on_street <chr>, neighbourhood_name <chr>,
    ## #   street_side_name <chr>, height_range_id <dbl>, diameter <dbl>, curb <chr>,
    ## #   date_planted <date>, longitude <dbl>, latitude <dbl>
…
